<svg width="32" height="22" viewBox="0 0 32 22" fill="none" xmlns="http://www.w3.org/2000/svg">
    <path d="M10.375 4.4375C12.5417 4.4375 14.5017 5.54932 15.625 7.0813L18.2874 4.3999C16.6951 2.32935 13.6304 0.6875 10.375 0.6875C4.67505 0.6875 0 5.30005 0 11C0 16.7 4.67505 21.3125 10.375 21.3125C15.1001 21.3125 19.075 18.1438 20.2937 13.8125C20.5562 12.9124 20.6875 11.9749 20.6875 11V10.0625H11.3125V13.8118H16.2812C15.25 16.0244 12.9812 17.5625 10.375 17.5625C6.75635 17.5625 3.75 14.6187 3.75 11C3.75 7.38135 6.75635 4.4375 10.375 4.4375Z" fill="#E71D28"/>
    <path d="M29.125 6.3125H25.375V9.125H22.5625V12.875H25.375V15.6875H29.125V12.875H32V9.125H29.125V6.3125Z" fill="#E71D28"/>
</svg>
